{
  "common": {
    "log_file": "~/.log/powerline.log",
    "term_truecolor": true,
    "paths": ["~/.config/powerline/segments"]
  },
  "ext": {
    "tmux": {
      "colorscheme": "default",
      "theme": "custom" }
  }
}
